…
``` r
snplist<-make_snplist(efo = "thyroid carcinoma",trait="thyroid carcinoma",ref1000G_superpops=TRUE,snplist_user=instruments$rsid)
#> Warning in gwas_catalog_hits(trait = trait): search for trait - thyroid
#> carcinoma - returned 0 studies from the GWAS catalog
head(snplist)
#> [1] "rs965513"    "rs944289"    "rs966423"    "rs2439302"   "rs116909374"
#> [6] "rs6759952"
length(snplist)
#> [1] 2397
thy <- ieugwasr::associations(id="ieu-a-1082", variants=snplist,proxies=0)  
dim(thy)
#> [1] 146  12
thy
#> # A tibble: 146 x 12
#>        se position     n chr       p    beta id    rsid  ea    nea     eaf trait
#>     <dbl>    <int> <int> <chr> <dbl>   <dbl> <chr> <chr> <chr> <chr> <dbl> <chr>
#>  1 0.104    2.75e7  1187 12    0.826 -0.0229 ieu-… rs11… A     G     0.200 Thyr…
#>  2 0.0934   6.34e7  1187 3     0.526 -0.0592 ieu-… rs68… C     T     0.271 Thyr…
#>  3 0.0891   8.64e7  1187 4     0.754  0.0279 ieu-… rs46… G     A     0.676 Thyr…
#>  4 0.0953   9.20e6  1187 5     0.764 -0.0286 ieu-… rs14… G     A     0.256 Thyr…
#>  5 0.106    1.25e8  1187 10    0.354 -0.0977 ieu-… rs10… T     C     0.190 Thyr…
#>  6 0.104    1.26e7  1187 11    0.461  0.0768 ieu-… rs10… G     A     0.803 Thyr…
#>  7 0.119    8.15e6  1187 4     0.811  0.0286 ieu-… rs12… C     T     0.144 Thyr…
#>  8 0.0886   1.65e8  1187 4     0.717 -0.0321 ieu-… rs10… C     T     0.327 Thyr…
#>  9 0.104    1.24e8  1187 5     0.187  0.137  ieu-… rs48… T     C     0.802 Thyr…
#> 10 0.133    4.07e7  1187 8     0.400  0.112  ieu-… rs78… G     A     0.112 Thyr…
#> # … with 136 more rows
```
…
